EESchema Schematic File Version 4
LIBS:load-switch-cache
EELAYER 29 0
EELAYER END
$Descr A4 11693 8268
encoding utf-8
Sheet 1 1
Title ""
Date ""
Rev ""
Comp ""
Comment1 ""
Comment2 ""
Comment3 ""
Comment4 ""
$EndDescr
Wire Wire Line
	7200 3500 7500 3500
Text Label 3900 3500 0    50   ~ 0
VIN
Wire Wire Line
	6800 3500 6700 3500
$Comp
L Transistor_FET:Si7141DP Q1
U 1 1 5C8306B8
P 7000 3600
F 0 "Q1" V 7343 3600 50  0000 C CNN
F 1 "Si7141DP" V 7252 3600 50  0000 C CNN
F 2 "Package_SO:PowerPAK_SO-8_Single" H 7200 3525 50  0001 L CIN
F 3 "https://www.vishay.com/docs/65596/si7141dp.pdf" H 7000 3600 50  0001 L CNN
	1    7000 3600
	0    1    -1   0   
$EndComp
Wire Wire Line
	7000 3800 7000 3900
Wire Wire Line
	6400 3600 6400 3500
$Comp
L Device:C_Small C1
U 1 1 5C836697
P 6400 3700
F 0 "C1" H 6492 3746 50  0000 L CNN
F 1 "DNF" H 6492 3655 50  0000 L CNN
F 2 "Capacitor_SMD:C_0805_2012Metric" H 6400 3700 50  0001 C CNN
F 3 "~" H 6400 3700 50  0001 C CNN
	1    6400 3700
	1    0    0    -1  
$EndComp
Wire Wire Line
	6700 3600 6700 3500
Connection ~ 6700 3500
Wire Wire Line
	6700 3500 6400 3500
$Comp
L Connector_Generic:Conn_02x02_Top_Bottom J1
U 1 1 5C840698
P 3400 3500
F 0 "J1" H 3450 3717 50  0000 C CNN
F 1 "IN" H 3450 3626 50  0000 C CNN
F 2 "Connector_Molex:Molex_Mega-Fit_76825-0004_2x02_P5.70mm_Horizontal" H 3400 3500 50  0001 C CNN
F 3 "~" H 3400 3500 50  0001 C CNN
	1    3400 3500
	1    0    0    -1  
$EndComp
Wire Wire Line
	3700 3500 3800 3500
Wire Wire Line
	3700 3600 3800 3600
Wire Wire Line
	3800 3600 3800 3500
Connection ~ 3800 3500
Wire Wire Line
	3200 3500 3100 3500
Wire Wire Line
	3100 3500 3100 3600
Wire Wire Line
	3100 3600 3200 3600
Wire Wire Line
	3100 3700 3100 3600
Connection ~ 3100 3600
$Comp
L Connector_Generic:Conn_02x02_Top_Bottom J2
U 1 1 5C842663
P 7900 3500
F 0 "J2" H 7950 3717 50  0000 C CNN
F 1 "OUT" H 7950 3626 50  0000 C CNN
F 2 "Connector_Molex:Molex_Mega-Fit_76825-0004_2x02_P5.70mm_Horizontal" H 7900 3500 50  0001 C CNN
F 3 "~" H 7900 3500 50  0001 C CNN
	1    7900 3500
	-1   0    0    -1  
$EndComp
Text Label 7400 3500 2    50   ~ 0
VOUT
Wire Wire Line
	7600 3600 7500 3600
Wire Wire Line
	7500 3600 7500 3500
Connection ~ 7500 3500
Wire Wire Line
	7500 3500 7600 3500
Wire Wire Line
	8100 3600 8200 3600
Wire Wire Line
	8200 3600 8200 3700
Wire Wire Line
	8100 3500 8200 3500
Wire Wire Line
	8200 3500 8200 3600
Connection ~ 8200 3600
Connection ~ 6400 3500
Wire Wire Line
	6400 3800 6400 3900
Wire Wire Line
	6400 3900 6700 3900
Wire Wire Line
	6700 3800 6700 3900
Connection ~ 6700 3900
Wire Wire Line
	6700 3900 7000 3900
Wire Wire Line
	7000 4000 7000 3900
Connection ~ 7000 3900
Wire Wire Line
	7000 4300 7000 4200
$Comp
L Device:R_Small R2
U 1 1 5C96BE58
P 7000 4100
F 0 "R2" H 7059 4146 50  0000 L CNN
F 1 "100" H 7059 4055 50  0000 L CNN
F 2 "Resistor_SMD:R_0603_1608Metric" H 7000 4100 50  0001 C CNN
F 3 "~" H 7000 4100 50  0001 C CNN
	1    7000 4100
	1    0    0    -1  
$EndComp
$Comp
L Device:R_Small R1
U 1 1 5C836490
P 6700 3700
F 0 "R1" H 6759 3746 50  0000 L CNN
F 1 "10k" H 6759 3655 50  0000 L CNN
F 2 "Resistor_SMD:R_0603_1608Metric" H 6700 3700 50  0001 C CNN
F 3 "~" H 6700 3700 50  0001 C CNN
	1    6700 3700
	1    0    0    -1  
$EndComp
$Comp
L Device:Net-Tie_2 NT1
U 1 1 5C97CC6B
P 8400 3500
F 0 "NT1" H 8400 3681 50  0000 C CNN
F 1 "Net-Tie" H 8400 3590 50  0000 C CNN
F 2 "NetTie:NetTie-2_SMD_Pad2.0mm" H 8400 3500 50  0001 C CNN
F 3 "~" H 8400 3500 50  0001 C CNN
	1    8400 3500
	1    0    0    -1  
$EndComp
$Comp
L power:GNDPWR #PWR0103
U 1 1 5C9825C3
P 8200 3700
F 0 "#PWR0103" H 8200 3500 50  0001 C CNN
F 1 "GNDPWR" H 8204 3546 50  0000 C CNN
F 2 "" H 8200 3650 50  0001 C CNN
F 3 "" H 8200 3650 50  0001 C CNN
	1    8200 3700
	1    0    0    -1  
$EndComp
$Comp
L power:GNDPWR #PWR0104
U 1 1 5C982C83
P 3100 3700
F 0 "#PWR0104" H 3100 3500 50  0001 C CNN
F 1 "GNDPWR" H 3104 3546 50  0000 C CNN
F 2 "" H 3100 3650 50  0001 C CNN
F 3 "" H 3100 3650 50  0001 C CNN
	1    3100 3700
	1    0    0    -1  
$EndComp
Wire Wire Line
	8300 3500 8200 3500
Connection ~ 8200 3500
Wire Wire Line
	8500 3500 8600 3500
Wire Wire Line
	8600 3500 8600 3700
$Comp
L power:GND #PWR0105
U 1 1 5C98538D
P 8600 3700
F 0 "#PWR0105" H 8600 3450 50  0001 C CNN
F 1 "GND" H 8605 3527 50  0000 C CNN
F 2 "" H 8600 3700 50  0001 C CNN
F 3 "" H 8600 3700 50  0001 C CNN
	1    8600 3700
	1    0    0    -1  
$EndComp
$Comp
L power:GND #PWR0106
U 1 1 5C99D730
P 3200 4200
F 0 "#PWR0106" H 3200 3950 50  0001 C CNN
F 1 "GND" V 3205 4072 50  0000 R CNN
F 2 "" H 3200 4200 50  0001 C CNN
F 3 "" H 3200 4200 50  0001 C CNN
	1    3200 4200
	0    1    1    0   
$EndComp
Wire Wire Line
	3200 4400 3000 4400
$Comp
L power:+5V #PWR0108
U 1 1 5C9A09DE
P 3200 4300
F 0 "#PWR0108" H 3200 4150 50  0001 C CNN
F 1 "+5V" V 3215 4428 50  0000 L CNN
F 2 "" H 3200 4300 50  0001 C CNN
F 3 "" H 3200 4300 50  0001 C CNN
	1    3200 4300
	0    -1   -1   0   
$EndComp
Wire Wire Line
	3200 4500 3000 4500
$Comp
L power:GND #PWR0109
U 1 1 5C9A8098
P 3400 4700
F 0 "#PWR0109" H 3400 4450 50  0001 C CNN
F 1 "GND" H 3405 4527 50  0000 C CNN
F 2 "" H 3400 4700 50  0001 C CNN
F 3 "" H 3400 4700 50  0001 C CNN
	1    3400 4700
	1    0    0    -1  
$EndComp
$Comp
L Connector_Generic_MountingPin:Conn_01x04_MountingPin J3
U 1 1 5C98BF11
P 3400 4300
F 0 "J3" H 3488 4214 50  0000 L CNN
F 1 "CTRL" H 3488 4123 50  0000 L CNN
F 2 "Connector_JST:JST_GH_SM04B-GHS-TB_1x04-1MP_P1.25mm_Horizontal" H 3400 4300 50  0001 C CNN
F 3 "~" H 3400 4300 50  0001 C CNN
	1    3400 4300
	1    0    0    -1  
$EndComp
Connection ~ 5800 3500
Wire Wire Line
	5800 3600 5800 3500
$Comp
L power:GND #PWR0102
U 1 1 5C978898
P 5800 3800
F 0 "#PWR0102" H 5800 3550 50  0001 C CNN
F 1 "GND" H 5805 3627 50  0000 C CNN
F 2 "" H 5800 3800 50  0001 C CNN
F 3 "" H 5800 3800 50  0001 C CNN
	1    5800 3800
	1    0    0    -1  
$EndComp
$Comp
L Device:C_Small C2
U 1 1 5C9614E5
P 5800 3700
F 0 "C2" H 5892 3746 50  0000 L CNN
F 1 "100n" H 5892 3655 50  0000 L CNN
F 2 "Capacitor_SMD:C_0603_1608Metric" H 5800 3700 50  0001 C CNN
F 3 "~" H 5800 3700 50  0001 C CNN
	1    5800 3700
	1    0    0    -1  
$EndComp
Wire Wire Line
	6100 3500 5800 3500
Wire Wire Line
	6400 3500 6100 3500
Connection ~ 6100 3500
Wire Wire Line
	6100 3500 6100 3900
$Comp
L power:+5V #PWR0107
U 1 1 5C8EF40C
P 5500 3900
F 0 "#PWR0107" H 5500 3750 50  0001 C CNN
F 1 "+5V" H 5515 4073 50  0000 C CNN
F 2 "" H 5500 3900 50  0001 C CNN
F 3 "" H 5500 3900 50  0001 C CNN
	1    5500 3900
	1    0    0    -1  
$EndComp
Text Label 5200 4400 0    50   ~ 0
EN
$Comp
L power:GND #PWR0101
U 1 1 5C97836D
P 6100 4700
F 0 "#PWR0101" H 6100 4450 50  0001 C CNN
F 1 "GND" H 6105 4527 50  0000 C CNN
F 2 "" H 6100 4700 50  0001 C CNN
F 3 "" H 6100 4700 50  0001 C CNN
	1    6100 4700
	1    0    0    -1  
$EndComp
Wire Wire Line
	6400 4300 7000 4300
Wire Wire Line
	5500 4200 5800 4200
Wire Wire Line
	5500 4100 5500 4200
Connection ~ 5500 4200
Wire Wire Line
	5200 4200 5500 4200
Text Label 5200 4200 0    50   ~ 0
~ON
Connection ~ 3800 3600
$Comp
L Device:C_Small C3
U 1 1 5C9E48AC
P 3800 4200
F 0 "C3" H 3892 4246 50  0000 L CNN
F 1 "1u" H 3892 4155 50  0000 L CNN
F 2 "Capacitor_SMD:C_0805_2012Metric" H 3800 4200 50  0001 C CNN
F 3 "~" H 3800 4200 50  0001 C CNN
	1    3800 4200
	1    0    0    -1  
$EndComp
$Comp
L power:GND #PWR0115
U 1 1 5CA640DF
P 3800 4400
F 0 "#PWR0115" H 3800 4150 50  0001 C CNN
F 1 "GND" H 3805 4227 50  0000 C CNN
F 2 "" H 3800 4400 50  0001 C CNN
F 3 "" H 3800 4400 50  0001 C CNN
	1    3800 4400
	1    0    0    -1  
$EndComp
Wire Wire Line
	3800 4400 3800 4300
Wire Wire Line
	3800 4000 3800 3600
Wire Wire Line
	3800 4100 3800 4000
Connection ~ 3800 4000
Wire Wire Line
	3800 4000 4000 4000
Wire Wire Line
	4800 4400 4800 4300
$Comp
L power:GND #PWR0111
U 1 1 5CA63CC3
P 4300 4400
F 0 "#PWR0111" H 4300 4150 50  0001 C CNN
F 1 "GND" H 4305 4227 50  0000 C CNN
F 2 "" H 4300 4400 50  0001 C CNN
F 3 "" H 4300 4400 50  0001 C CNN
	1    4300 4400
	1    0    0    -1  
$EndComp
$Comp
L power:GND #PWR0110
U 1 1 5CA636A4
P 4800 4400
F 0 "#PWR0110" H 4800 4150 50  0001 C CNN
F 1 "GND" H 4805 4227 50  0000 C CNN
F 2 "" H 4800 4400 50  0001 C CNN
F 3 "" H 4800 4400 50  0001 C CNN
	1    4800 4400
	1    0    0    -1  
$EndComp
Wire Wire Line
	4000 4100 4000 4000
Wire Wire Line
	4800 4000 4800 4100
Wire Wire Line
	4600 4000 4800 4000
$Comp
L Device:C_Small C4
U 1 1 5C9E4207
P 4800 4200
F 0 "C4" H 4892 4246 50  0000 L CNN
F 1 "2u2" H 4892 4155 50  0000 L CNN
F 2 "Capacitor_SMD:C_0805_2012Metric" H 4800 4200 50  0001 C CNN
F 3 "~" H 4800 4200 50  0001 C CNN
	1    4800 4200
	1    0    0    -1  
$EndComp
Connection ~ 4000 4000
$Comp
L Regulator_Linear:AP2204K-5.0 U2
U 1 1 5C9B8719
P 4300 4100
F 0 "U2" H 4300 4442 50  0000 C CNN
F 1 "AP2204K-5.0" H 4300 4351 50  0000 C CNN
F 2 "Package_TO_SOT_SMD:SOT-23-5" H 4300 4425 50  0001 C CNN
F 3 "https://www.diodes.com/assets/Datasheets/AP2204.pdf" H 4300 4200 50  0001 C CNN
	1    4300 4100
	1    0    0    -1  
$EndComp
Wire Wire Line
	3800 3500 5800 3500
Wire Wire Line
	5200 4400 5800 4400
$Comp
L Device:R_Small R3
U 1 1 5C89A264
P 5500 4000
F 0 "R3" H 5559 4046 50  0000 L CNN
F 1 "10k" H 5559 3955 50  0000 L CNN
F 2 "Resistor_SMD:R_0603_1608Metric" H 5500 4000 50  0001 C CNN
F 3 "~" H 5500 4000 50  0001 C CNN
	1    5500 4000
	1    0    0    -1  
$EndComp
$Comp
L power:+5V #PWR0112
U 1 1 5C9D85E7
P 4800 3900
F 0 "#PWR0112" H 4800 3750 50  0001 C CNN
F 1 "+5V" H 4815 4073 50  0000 C CNN
F 2 "" H 4800 3900 50  0001 C CNN
F 3 "" H 4800 3900 50  0001 C CNN
	1    4800 3900
	1    0    0    -1  
$EndComp
Wire Wire Line
	4800 4000 4800 3900
Connection ~ 4800 4000
Text Label 3000 4400 0    50   ~ 0
~ON
Text Label 3000 4500 0    50   ~ 0
EN
$Comp
L 0xdec:IXDD609D2 U1
U 1 1 5C9C4791
P 6100 4300
F 0 "U1" H 6444 4346 50  0000 L CNN
F 1 "IXDD609D2" H 6444 4255 50  0000 L CNN
F 2 "" H 5450 4700 50  0001 C CNN
F 3 "http://www.ixysic.com/home/pdfs.nsf/www/IXD_609.pdf/$file/IXD_609.pdf" H 5450 4700 50  0001 C CNN
	1    6100 4300
	1    0    0    -1  
$EndComp
$EndSCHEMATC
